{
  "name": "click_and_mortar",
  "description": "A theme based on Radix.",
  "proxy" : "http://local.clickandmortar.co.uk",
  "bowerDir": "./bower_components",
  "css": {
    "file" : "click_and_mortar.style.scss",
    "src": [
      "assets/scss/**/*.scss"
    ],
    "dest": "assets/css",
    "includePaths": [
      "./bower_components/bootstrap-sass/assets/stylesheets",
      "./bower_components/font-awesome/scss",
      "../radix/scss"
    ]
  },
  "js": {
    "file" : "click_and_mortar.script.js",
    "src": [
      "assets/js/**/*.js"
    ]
  },
  "images": {
    "src": [
      "assets/images/**/*"
    ],
    "dest": "assets/images/"
  },
  "fonts": {
    "src": [
      "./bower_components/font-awesome/fonts/**.*"
    ],
    "dest": "./assets/fonts/"
  }
}
